transcript
# vsim -c test_bench 
# Start time: 00:08:24 on Jul 07,2026
# ** Note: (vsim-3813) Design is being optimized due to module recompilation...
# ** Warning: TEST_BENCH/STATIC_FILES/tb.sv(16): (vopt-2241) Connection width does not match width of port 'address'. The port definition is at: TEST_BENCH/STATIC_FILES/dut.v(16).
# ** Warning: TEST_BENCH/DYNAMIC_FILES/test.sv(15): (vopt-2875) Task "build" is being called in function "new".
# //  Questa Sim
# //  Version 10.6c linux Jul 25 2017
# //
# //  Copyright 1991-2017 Mentor Graphics Corporation
# //  All Rights Reserved.
# //
# //  QuestaSim and its associated documentation contain trade
# //  secrets and commercial or financial information that are the property of
# //  Mentor Graphics Corporation and are privileged, confidential,
# //  and exempt from disclosure under the Freedom of Information Act,
# //  5 U.S.C. Section 552. Furthermore, this information
# //  is prohibited from disclosure under the Trade Secrets Act,
# //  18 U.S.C. Section 1905.
# //
# Loading sv_std.std
# Loading work.RAM_inf(fast)
# Loading work.tb_pkg(fast)
# Loading work.tb_sv_unit(fast)
# Loading work.test_bench(fast)
# Loading work.RAM(fast)
# ** Warning: (vsim-3015) TEST_BENCH/STATIC_FILES/tb.sv(16): [PCDPC] - Port size (2) does not match connection size (5) for port 'address'. The port definition is at: TEST_BENCH/STATIC_FILES/dut.v(16).
#    Time: 0 ns  Iteration: 0  Instance: /test_bench/dut File: TEST_BENCH/STATIC_FILES/dut.v
# TX_COUNT =          64
# TEST CASE 1 : BASE TEST
# TX_COUNT =          64
# Generated new Packet...
# Generated new Packet...
# Generated new Packet...
# Generated new Packet...
# Generated new Packet...
# Generated new Packet...
# Generated new Packet...
# Generated new Packet...
# Generated new Packet...
# Generated new Packet...
# Generated new Packet...
# Generated new Packet...
# Generated new Packet...
# Generated new Packet...
# Generated new Packet...
# Generated new Packet...
# Generated new Packet...
# Generated new Packet...
# Generated new Packet...
# Generated new Packet...
# Generated new Packet...
# Generated new Packet...
# Generated new Packet...
# Generated new Packet...
# Generated new Packet...
# Generated new Packet...
# Generated new Packet...
# Generated new Packet...
# Generated new Packet...
# Generated new Packet...
# Generated new Packet...
# Generated new Packet...
# Generated new Packet...
# Generated new Packet...
# Generated new Packet...
# Generated new Packet...
# Generated new Packet...
# Generated new Packet...
# Generated new Packet...
# Generated new Packet...
# Generated new Packet...
# Generated new Packet...
# Generated new Packet...
# Generated new Packet...
# Generated new Packet...
# Generated new Packet...
# Generated new Packet...
# Generated new Packet...
# Generated new Packet...
# Generated new Packet...
# Generated new Packet...
# Generated new Packet...
# Generated new Packet...
# Generated new Packet...
# Generated new Packet...
# Generated new Packet...
# Generated new Packet...
# Generated new Packet...
# Generated new Packet...
# Generated new Packet...
# Generated new Packet...
# Generated new Packet...
# Generated new Packet...
# Generated new Packet...
# @15 [DRV] DRIVINGGGGGGGG Transaction packet -           0 | write_enb = 1 read_enb = 0 address = 10 data_in =  58 
# @15 [MON]: Transmitting Transaction packet -           0 | write_enb = 0 read_enb = 0 address =  0 data_in =   0 data_out =   z
# @15 [REF]: Transmitting Transaction packet -           0 | write_enb = 1 read_enb = 0 address = 10 data_in =  58 data_out =   z
#  
# @25 [DRV] DRIVINGGGGGGGG Transaction packet -           1 | write_enb = 1 read_enb = 0 address = 26 data_in =  88 
# @25 [MON]: Transmitting Transaction packet -           1 | write_enb = 1 read_enb = 0 address = 10 data_in =  58 data_out =   z
# @25 [REF]: Transmitting Transaction packet -           1 | write_enb = 1 read_enb = 0 address = 26 data_in =  88 data_out =   z
#  
# @35 [DRV] DRIVINGGGGGGGG Transaction packet -           2 | write_enb = 1 read_enb = 0 address =  1 data_in =  59 
# @35 [MON]: Transmitting Transaction packet -           2 | write_enb = 1 read_enb = 0 address = 26 data_in =  88 data_out =   z
# @35 [REF]: Transmitting Transaction packet -           2 | write_enb = 1 read_enb = 0 address =  1 data_in =  59 data_out =   z
#  
# @45 [DRV] DRIVINGGGGGGGG Transaction packet -           3 | write_enb = 1 read_enb = 0 address = 17 data_in =  36 
# @45 [MON]: Transmitting Transaction packet -           3 | write_enb = 1 read_enb = 0 address =  1 data_in =  59 data_out =   z
# @45 [REF]: Transmitting Transaction packet -           3 | write_enb = 1 read_enb = 0 address = 17 data_in =  36 data_out =   z
#  
# @55 [DRV] DRIVINGGGGGGGG Transaction packet -           4 | write_enb = 1 read_enb = 0 address = 12 data_in =  94 
# @55 [MON]: Transmitting Transaction packet -           4 | write_enb = 1 read_enb = 0 address = 17 data_in =  36 data_out =   z
# @55 [REF]: Transmitting Transaction packet -           4 | write_enb = 1 read_enb = 0 address = 12 data_in =  94 data_out =   z
#  
# @65 [DRV] DRIVINGGGGGGGG Transaction packet -           5 | write_enb = 1 read_enb = 0 address = 28 data_in = 186 
# @65 [MON]: Transmitting Transaction packet -           5 | write_enb = 1 read_enb = 0 address = 12 data_in =  94 data_out =   z
# @65 [REF]: Transmitting Transaction packet -           5 | write_enb = 1 read_enb = 0 address = 28 data_in = 186 data_out =   z
#  
# @75 [DRV] DRIVINGGGGGGGG Transaction packet -           6 | write_enb = 1 read_enb = 0 address = 11 data_in =  82 
# @75 [MON]: Transmitting Transaction packet -           6 | write_enb = 1 read_enb = 0 address = 28 data_in = 186 data_out =   z
# @75 [REF]: Transmitting Transaction packet -           6 | write_enb = 1 read_enb = 0 address = 11 data_in =  82 data_out =   z
#  
# @85 [DRV] DRIVINGGGGGGGG Transaction packet -           7 | write_enb = 1 read_enb = 0 address = 27 data_in =  46 
# @85 [MON]: Transmitting Transaction packet -           7 | write_enb = 1 read_enb = 0 address = 11 data_in =  82 data_out =   z
# @85 [REF]: Transmitting Transaction packet -           7 | write_enb = 1 read_enb = 0 address = 27 data_in =  46 data_out =   z
#  
# @95 [DRV] DRIVINGGGGGGGG Transaction packet -           8 | write_enb = 1 read_enb = 0 address =  6 data_in =  73 
# @95 [MON]: Transmitting Transaction packet -           8 | write_enb = 1 read_enb = 0 address = 27 data_in =  46 data_out =   z
# @95 [REF]: Transmitting Transaction packet -           8 | write_enb = 1 read_enb = 0 address =  6 data_in =  73 data_out =   z
#  
# @105 [DRV] DRIVINGGGGGGGG Transaction packet -           9 | write_enb = 1 read_enb = 0 address = 22 data_in =  71 
# @105 [MON]: Transmitting Transaction packet -           9 | write_enb = 1 read_enb = 0 address =  6 data_in =  73 data_out =   z
# @105 [REF]: Transmitting Transaction packet -           9 | write_enb = 1 read_enb = 0 address = 22 data_in =  71 data_out =   z
#  
# @115 [DRV] DRIVINGGGGGGGG Transaction packet -          10 | write_enb = 1 read_enb = 0 address = 13 data_in = 192 
# @115 [MON]: Transmitting Transaction packet -          10 | write_enb = 1 read_enb = 0 address = 22 data_in =  71 data_out =   z
# @115 [REF]: Transmitting Transaction packet -          10 | write_enb = 1 read_enb = 0 address = 13 data_in = 192 data_out =   z
#  
# @125 [DRV] DRIVINGGGGGGGG Transaction packet -          11 | write_enb = 1 read_enb = 0 address = 29 data_in = 209 
# @125 [MON]: Transmitting Transaction packet -          11 | write_enb = 1 read_enb = 0 address = 13 data_in = 192 data_out =   z
# @125 [REF]: Transmitting Transaction packet -          11 | write_enb = 1 read_enb = 0 address = 29 data_in = 209 data_out =   z
#  
# @135 [DRV] DRIVINGGGGGGGG Transaction packet -          12 | write_enb = 1 read_enb = 0 address =  8 data_in = 248 
# @135 [MON]: Transmitting Transaction packet -          12 | write_enb = 1 read_enb = 0 address = 29 data_in = 209 data_out =   z
# @135 [REF]: Transmitting Transaction packet -          12 | write_enb = 1 read_enb = 0 address =  8 data_in = 248 data_out =   z
#  
# @145 [DRV] DRIVINGGGGGGGG Transaction packet -          13 | write_enb = 1 read_enb = 0 address = 24 data_in = 152 
# @145 [MON]: Transmitting Transaction packet -          13 | write_enb = 1 read_enb = 0 address =  8 data_in = 248 data_out =   z
# @145 [REF]: Transmitting Transaction packet -          13 | write_enb = 1 read_enb = 0 address = 24 data_in = 152 data_out =   z
#  
# @155 [DRV] DRIVINGGGGGGGG Transaction packet -          14 | write_enb = 1 read_enb = 0 address =  7 data_in = 234 
# @155 [MON]: Transmitting Transaction packet -          14 | write_enb = 1 read_enb = 0 address = 24 data_in = 152 data_out =   z
# @155 [REF]: Transmitting Transaction packet -          14 | write_enb = 1 read_enb = 0 address =  7 data_in = 234 data_out =   z
#  
# @165 [DRV] DRIVINGGGGGGGG Transaction packet -          15 | write_enb = 1 read_enb = 0 address = 23 data_in =  90 
# @165 [MON]: Transmitting Transaction packet -          15 | write_enb = 1 read_enb = 0 address =  7 data_in = 234 data_out =   z
# @165 [REF]: Transmitting Transaction packet -          15 | write_enb = 1 read_enb = 0 address = 23 data_in =  90 data_out =   z
#  
# @175 [DRV] DRIVINGGGGGGGG Transaction packet -          16 | write_enb = 1 read_enb = 0 address =  2 data_in = 107 
# @175 [MON]: Transmitting Transaction packet -          16 | write_enb = 1 read_enb = 0 address = 23 data_in =  90 data_out =   z
# @175 [REF]: Transmitting Transaction packet -          16 | write_enb = 1 read_enb = 0 address =  2 data_in = 107 data_out =   z
#  
# @185 [DRV] DRIVINGGGGGGGG Transaction packet -          17 | write_enb = 1 read_enb = 0 address = 18 data_in = 210 
# @185 [MON]: Transmitting Transaction packet -          17 | write_enb = 1 read_enb = 0 address =  2 data_in = 107 data_out =   z
# @185 [REF]: Transmitting Transaction packet -          17 | write_enb = 1 read_enb = 0 address = 18 data_in = 210 data_out =   z
#  
# @195 [DRV] DRIVINGGGGGGGG Transaction packet -          18 | write_enb = 1 read_enb = 0 address =  9 data_in = 138 
# @195 [MON]: Transmitting Transaction packet -          18 | write_enb = 1 read_enb = 0 address = 18 data_in = 210 data_out =   z
# @195 [REF]: Transmitting Transaction packet -          18 | write_enb = 1 read_enb = 0 address =  9 data_in = 138 data_out =   z
#  
# @205 [DRV] DRIVINGGGGGGGG Transaction packet -          19 | write_enb = 1 read_enb = 0 address = 25 data_in = 102 
# @205 [MON]: Transmitting Transaction packet -          19 | write_enb = 1 read_enb = 0 address =  9 data_in = 138 data_out =   z
# @205 [REF]: Transmitting Transaction packet -          19 | write_enb = 1 read_enb = 0 address = 25 data_in = 102 data_out =   z
#  
# @215 [DRV] DRIVINGGGGGGGG Transaction packet -          20 | write_enb = 1 read_enb = 0 address =  4 data_in =  63 
# @215 [MON]: Transmitting Transaction packet -          20 | write_enb = 1 read_enb = 0 address = 25 data_in = 102 data_out =   z
# @215 [REF]: Transmitting Transaction packet -          20 | write_enb = 1 read_enb = 0 address =  4 data_in =  63 data_out =   z
#  
# @225 [DRV] DRIVINGGGGGGGG Transaction packet -          21 | write_enb = 1 read_enb = 0 address = 20 data_in = 238 
# @225 [MON]: Transmitting Transaction packet -          21 | write_enb = 1 read_enb = 0 address =  4 data_in =  63 data_out =   z
# @225 [REF]: Transmitting Transaction packet -          21 | write_enb = 1 read_enb = 0 address = 20 data_in = 238 data_out =   z
#  
# @235 [DRV] DRIVINGGGGGGGG Transaction packet -          22 | write_enb = 1 read_enb = 0 address =  3 data_in = 106 
# @235 [MON]: Transmitting Transaction packet -          22 | write_enb = 1 read_enb = 0 address = 20 data_in = 238 data_out =   z
# @235 [REF]: Transmitting Transaction packet -          22 | write_enb = 1 read_enb = 0 address =  3 data_in = 106 data_out =   z
#  
# @245 [DRV] DRIVINGGGGGGGG Transaction packet -          23 | write_enb = 1 read_enb = 0 address = 19 data_in = 238 
# @245 [MON]: Transmitting Transaction packet -          23 | write_enb = 1 read_enb = 0 address =  3 data_in = 106 data_out =   z
# @245 [REF]: Transmitting Transaction packet -          23 | write_enb = 1 read_enb = 0 address = 19 data_in = 238 data_out =   z
#  
# @255 [DRV] DRIVINGGGGGGGG Transaction packet -          24 | write_enb = 1 read_enb = 0 address = 14 data_in = 185 
# @255 [MON]: Transmitting Transaction packet -          24 | write_enb = 1 read_enb = 0 address = 19 data_in = 238 data_out =   z
# @255 [REF]: Transmitting Transaction packet -          24 | write_enb = 1 read_enb = 0 address = 14 data_in = 185 data_out =   z
#  
# @265 [DRV] DRIVINGGGGGGGG Transaction packet -          25 | write_enb = 1 read_enb = 0 address = 30 data_in = 190 
# @265 [MON]: Transmitting Transaction packet -          25 | write_enb = 1 read_enb = 0 address = 14 data_in = 185 data_out =   z
# @265 [REF]: Transmitting Transaction packet -          25 | write_enb = 1 read_enb = 0 address = 30 data_in = 190 data_out =   z
#  
# @275 [DRV] DRIVINGGGGGGGG Transaction packet -          26 | write_enb = 1 read_enb = 0 address =  5 data_in =  56 
# @275 [MON]: Transmitting Transaction packet -          26 | write_enb = 1 read_enb = 0 address = 30 data_in = 190 data_out =   z
# @275 [REF]: Transmitting Transaction packet -          26 | write_enb = 1 read_enb = 0 address =  5 data_in =  56 data_out =   z
#  
# @285 [DRV] DRIVINGGGGGGGG Transaction packet -          27 | write_enb = 1 read_enb = 0 address = 21 data_in = 216 
# @285 [MON]: Transmitting Transaction packet -          27 | write_enb = 1 read_enb = 0 address =  5 data_in =  56 data_out =   z
# @285 [REF]: Transmitting Transaction packet -          27 | write_enb = 1 read_enb = 0 address = 21 data_in = 216 data_out =   z
#  
# @295 [DRV] DRIVINGGGGGGGG Transaction packet -          28 | write_enb = 1 read_enb = 0 address =  0 data_in =   1 
# @295 [MON]: Transmitting Transaction packet -          28 | write_enb = 1 read_enb = 0 address = 21 data_in = 216 data_out =   z
# @295 [REF]: Transmitting Transaction packet -          28 | write_enb = 1 read_enb = 0 address =  0 data_in =   1 data_out =   z
#  
# @305 [DRV] DRIVINGGGGGGGG Transaction packet -          29 | write_enb = 1 read_enb = 0 address = 16 data_in = 149 
# @305 [MON]: Transmitting Transaction packet -          29 | write_enb = 1 read_enb = 0 address =  0 data_in =   1 data_out =   z
# @305 [REF]: Transmitting Transaction packet -          29 | write_enb = 1 read_enb = 0 address = 16 data_in = 149 data_out =   z
#  
# @315 [DRV] DRIVINGGGGGGGG Transaction packet -          30 | write_enb = 1 read_enb = 0 address = 15 data_in =   3 
# @315 [MON]: Transmitting Transaction packet -          30 | write_enb = 1 read_enb = 0 address = 16 data_in = 149 data_out =   z
# @315 [REF]: Transmitting Transaction packet -          30 | write_enb = 1 read_enb = 0 address = 15 data_in =   3 data_out =   z
#  
# @325 [DRV] DRIVINGGGGGGGG Transaction packet -          31 | write_enb = 1 read_enb = 0 address = 31 data_in = 149 
# @325 [MON]: Transmitting Transaction packet -          31 | write_enb = 1 read_enb = 0 address = 15 data_in =   3 data_out =   z
# @325 [REF]: Transmitting Transaction packet -          31 | write_enb = 1 read_enb = 0 address = 31 data_in = 149 data_out =   z
#  
# @335 [DRV] DRIVINGGGGGGGG Transaction packet -          32 | write_enb = 0 read_enb = 1 address = 14 data_in =   1 
# @335 [MON]: Transmitting Transaction packet -          32 | write_enb = 1 read_enb = 0 address = 31 data_in = 149 data_out =   z
# @335 [REF]: Transmitting Transaction packet -          32 | write_enb = 0 read_enb = 1 address = 14 data_in =   1 data_out = 185
#  
# @345 [DRV] DRIVINGGGGGGGG Transaction packet -          33 | write_enb = 0 read_enb = 1 address = 21 data_in = 148 
# @345 [MON]: Transmitting Transaction packet -          33 | write_enb = 0 read_enb = 1 address = 14 data_in =   1 data_out = 190
# @345 [REF]: Transmitting Transaction packet -          33 | write_enb = 0 read_enb = 1 address = 21 data_in = 148 data_out = 216
#  
# @355 [DRV] DRIVINGGGGGGGG Transaction packet -          34 | write_enb = 0 read_enb = 1 address =  1 data_in = 109 
# @355 [MON]: Transmitting Transaction packet -          34 | write_enb = 0 read_enb = 1 address = 21 data_in = 148 data_out = 216
# @355 [REF]: Transmitting Transaction packet -          34 | write_enb = 0 read_enb = 1 address =  1 data_in = 109 data_out =  59
#  
# @365 [DRV] DRIVINGGGGGGGG Transaction packet -          35 | write_enb = 0 read_enb = 1 address = 24 data_in =  87 
# @365 [MON]: Transmitting Transaction packet -          35 | write_enb = 0 read_enb = 1 address =  1 data_in = 109 data_out = 216
# @365 [REF]: Transmitting Transaction packet -          35 | write_enb = 0 read_enb = 1 address = 24 data_in =  87 data_out = 152
#  
# @375 [DRV] DRIVINGGGGGGGG Transaction packet -          36 | write_enb = 0 read_enb = 1 address = 19 data_in = 174 
# @375 [MON]: Transmitting Transaction packet -          36 | write_enb = 0 read_enb = 1 address = 24 data_in =  87 data_out = 149
# @375 [REF]: Transmitting Transaction packet -          36 | write_enb = 0 read_enb = 1 address = 19 data_in = 174 data_out = 238
#  
# @385 [DRV] DRIVINGGGGGGGG Transaction packet -          37 | write_enb = 0 read_enb = 1 address = 15 data_in = 100 
# @385 [MON]: Transmitting Transaction packet -          37 | write_enb = 0 read_enb = 1 address = 19 data_in = 174 data_out = 149
# @385 [REF]: Transmitting Transaction packet -          37 | write_enb = 0 read_enb = 1 address = 15 data_in = 100 data_out =   3
#  
# @395 [DRV] DRIVINGGGGGGGG Transaction packet -          38 | write_enb = 0 read_enb = 1 address =  6 data_in = 143 
# @395 [MON]: Transmitting Transaction packet -          38 | write_enb = 0 read_enb = 1 address = 15 data_in = 100 data_out = 149
# @395 [REF]: Transmitting Transaction packet -          38 | write_enb = 0 read_enb = 1 address =  6 data_in = 143 data_out =  73
#  
# @405 [DRV] DRIVINGGGGGGGG Transaction packet -          39 | write_enb = 0 read_enb = 1 address = 25 data_in = 247 
# @405 [MON]: Transmitting Transaction packet -          39 | write_enb = 0 read_enb = 1 address =  6 data_in = 143 data_out = 190
# @405 [REF]: Transmitting Transaction packet -          39 | write_enb = 0 read_enb = 1 address = 25 data_in = 247 data_out = 102
#  
# @415 [DRV] DRIVINGGGGGGGG Transaction packet -          40 | write_enb = 0 read_enb = 1 address = 16 data_in = 123 
# @415 [MON]: Transmitting Transaction packet -          40 | write_enb = 0 read_enb = 1 address = 25 data_in = 247 data_out = 216
# @415 [REF]: Transmitting Transaction packet -          40 | write_enb = 0 read_enb = 1 address = 16 data_in = 123 data_out = 149
#  
# @425 [DRV] DRIVINGGGGGGGG Transaction packet -          41 | write_enb = 0 read_enb = 1 address = 12 data_in =  42 
# @425 [MON]: Transmitting Transaction packet -          41 | write_enb = 0 read_enb = 1 address = 16 data_in = 123 data_out = 149
# @425 [REF]: Transmitting Transaction packet -          41 | write_enb = 0 read_enb = 1 address = 12 data_in =  42 data_out =  94
#  
# @435 [DRV] DRIVINGGGGGGGG Transaction packet -          42 | write_enb = 0 read_enb = 1 address =  7 data_in =  38 
# @435 [MON]: Transmitting Transaction packet -          42 | write_enb = 0 read_enb = 1 address = 12 data_in =  42 data_out = 149
# @435 [REF]: Transmitting Transaction packet -          42 | write_enb = 0 read_enb = 1 address =  7 data_in =  38 data_out = 234
#  
# @445 [DRV] DRIVINGGGGGGGG Transaction packet -          43 | write_enb = 0 read_enb = 1 address = 30 data_in = 128 
# @445 [MON]: Transmitting Transaction packet -          43 | write_enb = 0 read_enb = 1 address =  7 data_in =  38 data_out = 149
# @445 [REF]: Transmitting Transaction packet -          43 | write_enb = 0 read_enb = 1 address = 30 data_in = 128 data_out = 190
#  
# @455 [DRV] DRIVINGGGGGGGG Transaction packet -          44 | write_enb = 0 read_enb = 1 address = 10 data_in =  62 
# @455 [MON]: Transmitting Transaction packet -          44 | write_enb = 0 read_enb = 1 address = 30 data_in = 128 data_out = 190
# @455 [REF]: Transmitting Transaction packet -          44 | write_enb = 0 read_enb = 1 address = 10 data_in =  62 data_out =  58
#  
# @465 [DRV] DRIVINGGGGGGGG Transaction packet -          45 | write_enb = 0 read_enb = 1 address = 17 data_in =  51 
# @465 [MON]: Transmitting Transaction packet -          45 | write_enb = 0 read_enb = 1 address = 10 data_in =  62 data_out = 190
# @465 [REF]: Transmitting Transaction packet -          45 | write_enb = 0 read_enb = 1 address = 17 data_in =  51 data_out =  36
#  
# @475 [DRV] DRIVINGGGGGGGG Transaction packet -          46 | write_enb = 0 read_enb = 1 address = 13 data_in = 132 
# @475 [MON]: Transmitting Transaction packet -          46 | write_enb = 0 read_enb = 1 address = 17 data_in =  51 data_out = 216
# @475 [REF]: Transmitting Transaction packet -          46 | write_enb = 0 read_enb = 1 address = 13 data_in = 132 data_out = 192
#  
# @485 [DRV] DRIVINGGGGGGGG Transaction packet -          47 | write_enb = 0 read_enb = 1 address =  4 data_in =  19 
# @485 [MON]: Transmitting Transaction packet -          47 | write_enb = 0 read_enb = 1 address = 13 data_in = 132 data_out = 216
# @485 [REF]: Transmitting Transaction packet -          47 | write_enb = 0 read_enb = 1 address =  4 data_in =  19 data_out =  63
#  
# @495 [DRV] DRIVINGGGGGGGG Transaction packet -          48 | write_enb = 0 read_enb = 1 address = 31 data_in = 128 
# @495 [MON]: Transmitting Transaction packet -          48 | write_enb = 0 read_enb = 1 address =  4 data_in =  19 data_out = 149
# @495 [REF]: Transmitting Transaction packet -          48 | write_enb = 0 read_enb = 1 address = 31 data_in = 128 data_out = 149
#  
# @505 [DRV] DRIVINGGGGGGGG Transaction packet -          49 | write_enb = 0 read_enb = 1 address = 11 data_in = 225 
# @505 [MON]: Transmitting Transaction packet -          49 | write_enb = 0 read_enb = 1 address = 31 data_in = 128 data_out = 149
# @505 [REF]: Transmitting Transaction packet -          49 | write_enb = 0 read_enb = 1 address = 11 data_in = 225 data_out =  82
#  
# @515 [DRV] DRIVINGGGGGGGG Transaction packet -          50 | write_enb = 0 read_enb = 1 address = 22 data_in =  49 
# @515 [MON]: Transmitting Transaction packet -          50 | write_enb = 0 read_enb = 1 address = 11 data_in = 225 data_out = 149
# @515 [REF]: Transmitting Transaction packet -          50 | write_enb = 0 read_enb = 1 address = 22 data_in =  49 data_out =  71
#  
# @525 [DRV] DRIVINGGGGGGGG Transaction packet -          51 | write_enb = 0 read_enb = 1 address =  2 data_in = 171 
# @525 [MON]: Transmitting Transaction packet -          51 | write_enb = 0 read_enb = 1 address = 22 data_in =  49 data_out = 190
# @525 [REF]: Transmitting Transaction packet -          51 | write_enb = 0 read_enb = 1 address =  2 data_in = 171 data_out = 107
#  
# @535 [DRV] DRIVINGGGGGGGG Transaction packet -          52 | write_enb = 0 read_enb = 1 address =  5 data_in =  60 
# @535 [MON]: Transmitting Transaction packet -          52 | write_enb = 0 read_enb = 1 address =  2 data_in = 171 data_out = 190
# @535 [REF]: Transmitting Transaction packet -          52 | write_enb = 0 read_enb = 1 address =  5 data_in =  60 data_out =  56
#  
# @545 [DRV] DRIVINGGGGGGGG Transaction packet -          53 | write_enb = 0 read_enb = 1 address = 28 data_in = 227 
# @545 [MON]: Transmitting Transaction packet -          53 | write_enb = 0 read_enb = 1 address =  5 data_in =  60 data_out = 216
# @545 [REF]: Transmitting Transaction packet -          53 | write_enb = 0 read_enb = 1 address = 28 data_in = 227 data_out = 186
#  
# @555 [DRV] DRIVINGGGGGGGG Transaction packet -          54 | write_enb = 0 read_enb = 1 address =  8 data_in =  55 
# @555 [MON]: Transmitting Transaction packet -          54 | write_enb = 0 read_enb = 1 address = 28 data_in = 227 data_out = 149
# @555 [REF]: Transmitting Transaction packet -          54 | write_enb = 0 read_enb = 1 address =  8 data_in =  55 data_out = 248
#  
# @565 [DRV] DRIVINGGGGGGGG Transaction packet -          55 | write_enb = 0 read_enb = 1 address = 23 data_in = 156 
# @565 [MON]: Transmitting Transaction packet -          55 | write_enb = 0 read_enb = 1 address =  8 data_in =  55 data_out = 149
# @565 [REF]: Transmitting Transaction packet -          55 | write_enb = 0 read_enb = 1 address = 23 data_in = 156 data_out =  90
#  
# @575 [DRV] DRIVINGGGGGGGG Transaction packet -          56 | write_enb = 0 read_enb = 1 address =  3 data_in =  70 
# @575 [MON]: Transmitting Transaction packet -          56 | write_enb = 0 read_enb = 1 address = 23 data_in = 156 data_out = 149
# @575 [REF]: Transmitting Transaction packet -          56 | write_enb = 0 read_enb = 1 address =  3 data_in =  70 data_out = 106
#  
# @585 [DRV] DRIVINGGGGGGGG Transaction packet -          57 | write_enb = 0 read_enb = 1 address = 26 data_in = 105 
# @585 [MON]: Transmitting Transaction packet -          57 | write_enb = 0 read_enb = 1 address =  3 data_in =  70 data_out = 149
# @585 [REF]: Transmitting Transaction packet -          57 | write_enb = 0 read_enb = 1 address = 26 data_in = 105 data_out =  88
#  
# @595 [DRV] DRIVINGGGGGGGG Transaction packet -          58 | write_enb = 0 read_enb = 1 address = 29 data_in =  62 
# @595 [MON]: Transmitting Transaction packet -          58 | write_enb = 0 read_enb = 1 address = 26 data_in = 105 data_out = 190
# @595 [REF]: Transmitting Transaction packet -          58 | write_enb = 0 read_enb = 1 address = 29 data_in =  62 data_out = 209
#  
# @605 [DRV] DRIVINGGGGGGGG Transaction packet -          59 | write_enb = 0 read_enb = 1 address =  9 data_in =  83 
# @605 [MON]: Transmitting Transaction packet -          59 | write_enb = 0 read_enb = 1 address = 29 data_in =  62 data_out = 216
# @605 [REF]: Transmitting Transaction packet -          59 | write_enb = 0 read_enb = 1 address =  9 data_in =  83 data_out = 138
#  
# @615 [DRV] DRIVINGGGGGGGG Transaction packet -          60 | write_enb = 0 read_enb = 1 address = 20 data_in = 166 
# @615 [MON]: Transmitting Transaction packet -          60 | write_enb = 0 read_enb = 1 address =  9 data_in =  83 data_out = 216
# @615 [REF]: Transmitting Transaction packet -          60 | write_enb = 0 read_enb = 1 address = 20 data_in = 166 data_out = 238
#  
# @625 [DRV] DRIVINGGGGGGGG Transaction packet -          61 | write_enb = 0 read_enb = 1 address =  0 data_in = 179 
# @625 [MON]: Transmitting Transaction packet -          61 | write_enb = 0 read_enb = 1 address = 20 data_in = 166 data_out = 149
# @625 [REF]: Transmitting Transaction packet -          61 | write_enb = 0 read_enb = 1 address =  0 data_in = 179 data_out =   1
#  
# @635 [DRV] DRIVINGGGGGGGG Transaction packet -          62 | write_enb = 0 read_enb = 1 address = 27 data_in = 213 
# @635 [MON]: Transmitting Transaction packet -          62 | write_enb = 0 read_enb = 1 address =  0 data_in = 179 data_out = 149
# @635 [REF]: Transmitting Transaction packet -          62 | write_enb = 0 read_enb = 1 address = 27 data_in = 213 data_out =  46
#  
# @645 [DRV] DRIVINGGGGGGGG Transaction packet -          63 | write_enb = 0 read_enb = 1 address = 18 data_in =  94 
# @645 [MON]: Transmitting Transaction packet -          63 | write_enb = 0 read_enb = 1 address = 27 data_in = 213 data_out = 149
# @645 [REF]: Transmitting Transaction packet -          63 | write_enb = 0 read_enb = 1 address = 18 data_in =  94 data_out = 210
#  
# @655 [MON]: Transmitting Transaction packet -          64 | write_enb = 0 read_enb = 1 address = 18 data_in =  94 data_out = 190
# [SCR]: PASS
# [SCR]: PASS
# [SCR]: PASS
# [SCR]: PASS
# [SCR]: PASS
# [SCR]: PASS
# [SCR]: PASS
# [SCR]: PASS
# [SCR]: PASS
# [SCR]: PASS
# [SCR]: PASS
# [SCR]: PASS
# [SCR]: PASS
# [SCR]: PASS
# [SCR]: PASS
# [SCR]: PASS
# [SCR]: PASS
# [SCR]: PASS
# [SCR]: PASS
# [SCR]: PASS
# [SCR]: PASS
# [SCR]: PASS
# [SCR]: PASS
# [SCR]: PASS
# [SCR]: PASS
# [SCR]: PASS
# [SCR]: PASS
# [SCR]: PASS
# [SCR]: PASS
# [SCR]: PASS
# [SCR]: PASS
# [SCR]: PASS
#  
# [SCR]: FAILED
# [SCR]: EXPECTED Results address = 14 data_in =   1 write_enb = 0 read_enb = 1 data_out = 185
# [SCR]: DUT Results address = 31 data_in = 149 write_enb = 1 read_enb = 0 data_out =   z
# [SCR]: PASS
#  
# [SCR]: FAILED
# [SCR]: EXPECTED Results address =  1 data_in = 109 write_enb = 0 read_enb = 1 data_out =  59
# [SCR]: DUT Results address = 21 data_in = 148 write_enb = 0 read_enb = 1 data_out = 216
#  
# [SCR]: FAILED
# [SCR]: EXPECTED Results address = 24 data_in =  87 write_enb = 0 read_enb = 1 data_out = 152
# [SCR]: DUT Results address =  1 data_in = 109 write_enb = 0 read_enb = 1 data_out = 216
#  
# [SCR]: FAILED
# [SCR]: EXPECTED Results address = 19 data_in = 174 write_enb = 0 read_enb = 1 data_out = 238
# [SCR]: DUT Results address = 24 data_in =  87 write_enb = 0 read_enb = 1 data_out = 149
#  
# [SCR]: FAILED
# [SCR]: EXPECTED Results address = 15 data_in = 100 write_enb = 0 read_enb = 1 data_out =   3
# [SCR]: DUT Results address = 19 data_in = 174 write_enb = 0 read_enb = 1 data_out = 149
#  
# [SCR]: FAILED
# [SCR]: EXPECTED Results address =  6 data_in = 143 write_enb = 0 read_enb = 1 data_out =  73
# [SCR]: DUT Results address = 15 data_in = 100 write_enb = 0 read_enb = 1 data_out = 149
#  
# [SCR]: FAILED
# [SCR]: EXPECTED Results address = 25 data_in = 247 write_enb = 0 read_enb = 1 data_out = 102
# [SCR]: DUT Results address =  6 data_in = 143 write_enb = 0 read_enb = 1 data_out = 190
# [SCR]: PASS
#  
# [SCR]: FAILED
# [SCR]: EXPECTED Results address = 12 data_in =  42 write_enb = 0 read_enb = 1 data_out =  94
# [SCR]: DUT Results address = 16 data_in = 123 write_enb = 0 read_enb = 1 data_out = 149
#  
# [SCR]: FAILED
# [SCR]: EXPECTED Results address =  7 data_in =  38 write_enb = 0 read_enb = 1 data_out = 234
# [SCR]: DUT Results address = 12 data_in =  42 write_enb = 0 read_enb = 1 data_out = 149
# [SCR]: PASS
#  
# [SCR]: FAILED
# [SCR]: EXPECTED Results address = 10 data_in =  62 write_enb = 0 read_enb = 1 data_out =  58
# [SCR]: DUT Results address = 30 data_in = 128 write_enb = 0 read_enb = 1 data_out = 190
#  
# [SCR]: FAILED
# [SCR]: EXPECTED Results address = 17 data_in =  51 write_enb = 0 read_enb = 1 data_out =  36
# [SCR]: DUT Results address = 10 data_in =  62 write_enb = 0 read_enb = 1 data_out = 190
#  
# [SCR]: FAILED
# [SCR]: EXPECTED Results address = 13 data_in = 132 write_enb = 0 read_enb = 1 data_out = 192
